<svg xmlns="http://www.w3.org/2000/svg" width="9.19" height="16" viewBox="0 0 9.19 16">
  <defs>
    <style>
      .cls-1 {
        fill: none;
        stroke: #9933;
        stroke-linecap: round;
        stroke-width: 2px;
        fill-rule: evenodd;
      }
    </style>
  </defs>
  <path id="Прямоугольник_2_копия_7" data-name="Прямоугольник 2 копия 7" class="cls-1" d="M1302.5,801.5l6.79,7-6.79,7" transform="translate(-1301.5 -800.5)"/>
</svg>
